Lab 04 Ridge, Lasso, Elastic Net
…
## ! Fold07: internal: A correlation computation is required, but `estimate` is const...

## ! Fold08: internal: A correlation computation is required, but `estimate` is const...

## ! Fold09: internal: A correlation computation is required, but `estimate` is const...

## ! Fold10: internal: A correlation computation is required, but `estimate` is const...

results %>%
  collect_metrics()%>%
  filter(.metric == "rmse")%>%
  arrange(mean)

## # A tibble: 101 x 6
##    penalty .metric .estimator  mean     n std_err
##      <dbl> <chr>   <chr>      <dbl> <int>   <dbl>
##  1       1 rmse    standard    17.4    10   0.555
##  2       2 rmse    standard    17.7    10   0.652
##  3       3 rmse    standard    18.1    10   0.730
##  4       4 rmse    standard    18.5    10   0.809
##  5       5 rmse    standard    19.0    10   0.877
##  6       7 rmse    standard    19.1    10   0.881
##  7       8 rmse    standard    19.1    10   0.881
##  8       9 rmse    standard    19.1    10   0.881
##  9      10 rmse    standard    19.1    10   0.881
## 10      11 rmse    standard    19.1    10   0.881
## #  with 91 more rows
…
results %>%
  collect_metrics()%>%
  filter(.metric == "rmse")%>%
  arrange(mean)

## # A tibble: 66 x 7
##    penalty mixture .metric .estimator  mean     n std_err
##      <dbl>   <dbl> <chr>   <chr>      <dbl> <int>   <dbl>
##  1       1     1   rmse    standard    17.4    10   0.555
##  2       1     0.9 rmse    standard    17.4    10   0.548
##  3       1     0.8 rmse    standard    17.4    10   0.553
##  4       2     0.5 rmse    standard    17.4    10   0.543
##  5       2     0.6 rmse    standard    17.4    10   0.565
##  6       2     0.4 rmse    standard    17.4    10   0.534
##  7       3     0.3 rmse    standard    17.4    10   0.527
##  8       1     0.7 rmse    standard    17.5    10   0.567
##  9       3     0.4 rmse    standard    17.5    10   0.561
## 10       2     0.7 rmse    standard    17.5    10   0.596
## #  with 56 more rows
…
